…
 5 H13-3       3.5    6454.     184.     78.8    56.8    57.2     0.5     0.75            5.79
 6 H3-8        3.25   6501.     171      76.2    55.5    56.5     1       0.85            5.76
 7 H12-15      3      5818.     185      85.2    53.8    53.2     1       0.875           5.15
 8 H2-8        3.25   5800.     181.     81.2    56.5    58       1.5     0.95            5.11
 9 H16-2       3      5755      165      68.8    55.5    56.2     0.75    0.8             5.05
10 H10-13      3.5    5688.     178.     77.5    56      56.8     0.75    0.875           4.97
# A tibble: 5 × 9
  hybrid mean_EASP mean_GY mean_PHT mean_EHT mean_DA mean_DS mean_ASI mean_EPP
  <fct>      <dbl>   <dbl>    <dbl>    <dbl>   <dbl>   <dbl>    <dbl>    <dbl>
1 H10-15      3.25   7650.     192.     74.8    54.8    54       0.75    0.925
2 H12-15      3      5818.     185      85.2    53.8    53.2     1       0.875
3 H13-3       3.5    6454.     184.     78.8    56.8    57.2     0.5     0.75 
4 H2-8        3.25   5800.     181.     81.2    56.5    58       1.5     0.95 
5 H4-8        2.75   7078.     182.     81      54.2    54       1.25    0.925
# A tibble: 42 × 6
# Groups:   env_label [2]
   env_label hybrid mean_EASP sd_EASP var_EASP condition
   <chr>     <fct>      <dbl>   <dbl>    <dbl> <chr>    
 1 Infested  H5-10        2     1.41       2   Infested 
 2 Infested  H5-9         2     0          0   Infested 
 3 Infested  H12-15       2.5   0.707      0.5 Infested 
 4 Infested  H4-8         2.5   0.707      0.5 Infested 
 5 Infested  H5-12        2.5   0.707      0.5 Infested 
 6 Infested  H7-10        2.5   0.707      0.5 Infested 
 7 Infested  H8-12        2.5   0.707      0.5 Infested 
 8 Infested  H1-7         3     0          0   Infested 
 9 Infested  H1-8         3     0          0   Infested 
10 Infested  H10-15       3     0          0   Infested 
# ℹ 32 more rows
# ℹ Use `print(n = ...)` to see more rows
…
